IS415-GAA - Take-Home_Ex02
…
Drug Use Cases for 2018

Filtering and Preparing the 2018 Data

We first retrieve data for drug use cases from the year 2018. The data is stored as a list, and this specific index extracts the 2018 subset for further analysis. The goal is to conduct spatial analysis for this year’s drug use cases.

drugoff_list[[2]]

Simple feature collection with 77 features and 15 fields
Geometry type: MULTIPOLYGON
Dimension:     XY
Bounding box:  xmin: 97.34336 ymin: 5.613038 xmax: 105.637 ymax: 20.46507
Geodetic CRS:  WGS 84
# A tibble: 77 × 16
   fiscal_year types_of_drug_offenses no_cases province_en Shape_Leng Shape_Area
         <dbl> <chr>                     <dbl> <chr>            <dbl>      <dbl>
 1        2018 drug_use_cases            16480 Bangkok           2.42     0.131 
 2        2018 drug_use_cases              422 Chai Nat          2.90     0.209 
 3        2018 drug_use_cases             1661 Nonthaburi        1.25     0.0532
 4        2018 drug_use_cases             1823 Pathum Tha…       1.88     0.127 
 5        2018 drug_use_cases             1123 Phra Nakho…       3.04     0.214 
 6        2018 drug_use_cases             1850 Lop Buri          5.69     0.546 
 7        2018 drug_use_cases             3015 Samut Prak…       1.70     0.0793
 8        2018 drug_use_cases              628 Saraburi          4.77     0.292 
 9        2018 drug_use_cases              402 Sing Buri         1.78     0.0687
10        2018 drug_use_cases              660 Ang Thong         1.74     0.0792
# ℹ 67 more rows
# ℹ 10 more variables: ADM1_PCODE <chr>, ADM1_REF <chr>, ADM1ALT1EN <chr>,
#   ADM1ALT2EN <chr>, ADM0_EN <chr>, ADM0_PCODE <chr>, date <date>,
#   validOn <date>, validTo <date>, geometry <MULTIPOLYGON [°]>
…
The local Gi* statistic is computed to detect “hot” or “cold” spots of drug use cases. This method identifies clusters where provinces either have significantly higher or lower drug use compared to their neighbors. These clusters can indicate concentrated areas of drug problems or effective control.

HCSA_DUC18 <- wm_idw_DUC18 %>% 
  mutate(local_Gi = local_gstar_perm(
    no_cases, nb, wt, nsim = 99),
         .before = 1) %>%
  unnest(local_Gi)
HCSA_DUC18

Simple feature collection with 77 features and 27 fields
Geometry type: MULTIPOLYGON
Dimension:     XY
Bounding box:  xmin: 97.34336 ymin: 5.613038 xmax: 105.637 ymax: 20.46507
Geodetic CRS:  WGS 84
# A tibble: 77 × 28
   gi_star cluster   e_gi    var_gi std_dev  p_value p_sim p_folded_sim skewness
     <dbl> <fct>    <dbl>     <dbl>   <dbl>    <dbl> <dbl>        <dbl>    <dbl>
 1  2.71   High    0.0259 0.0000118   0.482  6.30e-1  0.5          0.25    0.821
 2 -1.28   Low     0.0125 0.0000522  -1.08   2.81e-1  0.06         0.03    1.96 
 3  3.01   Low     0.0126 0.0000396   3.15   1.62e-3  0.08         0.04    1.95 
 4  2.18   Low     0.0121 0.0000195   2.85   4.39e-3  0.1          0.05    1.64 
 5 -0.552  Low     0.0130 0.0000314  -0.490  6.24e-1  0.76         0.38    1.54 
 6 -0.373  Low     0.0127 0.0000234  -0.296  7.67e-1  0.92         0.46    1.84 
 7  4.30   High    0.0150 0.0000473   4.99   6.13e-7  0.04         0.02    3.16 
 8  0.0122 Low     0.0113 0.0000288   0.323  7.47e-1  0.5          0.25    1.71 
 9 -1.15   Low     0.0113 0.0000323  -0.884  3.77e-1  0.32         0.16    1.68 
10 -0.833  Low     0.0117 0.0000347  -0.701  4.83e-1  0.48         0.24    1.52 
# ℹ 67 more rows
# ℹ 19 more variables: kurtosis <dbl>, wts <list>, fiscal_year <dbl>,
#   types_of_drug_offenses <chr>, no_cases <dbl>, province_en <chr>,
#   Shape_Leng <dbl>, Shape_Area <dbl>, ADM1_PCODE <chr>, ADM1_REF <chr>,
#   ADM1ALT1EN <chr>, ADM1ALT2EN <chr>, ADM0_EN <chr>, ADM0_PCODE <chr>,
#   date <date>, validOn <date>, validTo <date>, geometry <MULTIPOLYGON [°]>,
#   nb <nb>
…
