IS415-GAA - Take-Home_Ex03
…
malaysia_sf <- malaysia_sf %>%
filter(ADM1_EN != 'W.P. Labuan' & ADM1_EN != 'Sabah' & ADM1_EN != 'Sarawak') %>%
          mutate(ADM1_EN = replace(ADM1_EN, ADM1_EN == 'W.P. Kuala Lumpur', 'Kuala Lumpur'),
                 ADM1_EN = replace(ADM1_EN, ADM1_EN == 'W.P. Putrajaya', 'Selangor'), 
                 ADM1_EN = toupper(ADM1_EN),
                 ADM2_EN = toupper(ADM2_EN))

malaysia_sf

Simple feature collection with 87 features and 14 fields
Geometry type: MULTIPOLYGON
Dimension:     XY
Bounding box:  xmin: 184853.1 ymin: 139843.3 xmax: 728635.8 ymax: 744607.2
Projected CRS: Kertau (RSO) / RSO Malaya (m)
# A tibble: 87 × 15
   ADM2_EN  ADM2_PCODE ADM2_REF ADM2ALT1EN ADM2ALT2EN ADM1_EN ADM1_PCODE ADM0_EN
 * <chr>    <chr>      <chr>    <chr>      <chr>      <chr>   <chr>      <chr>  
 1 BATU PA… MY0101     <NA>     <NA>       <NA>       JOHOR   MY01       Malays…
 2 JOHOR B… MY0102     <NA>     <NA>       <NA>       JOHOR   MY01       Malays…
 3 KLUANG   MY0103     <NA>     <NA>       <NA>       JOHOR   MY01       Malays…
 4 KOTA TI… MY0104     <NA>     <NA>       <NA>       JOHOR   MY01       Malays…
 5 KULAIJA… MY0105     <NA>     <NA>       <NA>       JOHOR   MY01       Malays…
 6 LEDANG   MY0106     <NA>     <NA>       <NA>       JOHOR   MY01       Malays…
 7 MERSING  MY0107     <NA>     <NA>       <NA>       JOHOR   MY01       Malays…
 8 MUAR     MY0108     <NA>     <NA>       <NA>       JOHOR   MY01       Malays…
 9 PONTIAN  MY0109     <NA>     <NA>       <NA>       JOHOR   MY01       Malays…
10 SEGAMAT  MY0110     <NA>     <NA>       <NA>       JOHOR   MY01       Malays…
# ℹ 77 more rows
# ℹ 7 more variables: ADM0_PCODE <chr>, date <date>, validOn <date>,
#   validTo <date>, Shape_Leng <dbl>, Shape_Area <dbl>,
#   geometry <MULTIPOLYGON [m]>

Geospatial Data Wrangling

crime_district <- crime_district %>%
              filter(state != 'Malaysia' & state != 'Sabah' & state != 'Sarawak') %>%
              mutate(state = replace(state, state == 'W.P. Kuala Lumpur', 'Kuala Lumpur'),
                     state = toupper(state),
                     district = toupper(district)) %>%
                  filter(district != 'ALL')  %>%
                  filter(type != 'all') 
crime_district

# A tibble: 10,368 × 6
   state district   category type           date       crimes
   <chr> <chr>      <chr>    <chr>          <date>      <dbl>
 1 JOHOR BATU PAHAT assault  causing_injury 2016-01-01     39
 2 JOHOR BATU PAHAT assault  causing_injury 2017-01-01     41
 3 JOHOR BATU PAHAT assault  causing_injury 2018-01-01     28
 4 JOHOR BATU PAHAT assault  causing_injury 2019-01-01     41
 5 JOHOR BATU PAHAT assault  causing_injury 2020-01-01     43
 6 JOHOR BATU PAHAT assault  causing_injury 2021-01-01     22
 7 JOHOR BATU PAHAT assault  causing_injury 2022-01-01     19
 8 JOHOR BATU PAHAT assault  causing_injury 2023-01-01     22
 9 JOHOR BATU PAHAT assault  murder         2016-01-01      6
10 JOHOR BATU PAHAT assault  murder         2017-01-01      0
# ℹ 10,358 more rows

crime_district_malaysia <- malaysia_sf %>%
  left_join(crime_district,
            by = c("ADM1_EN" = "state",
                   "ADM2_EN" = "district")) %>%
  dplyr::select(1, 6, 13:19)

crime_district_malaysia

Simple feature collection with 6546 features and 8 fields
Geometry type: MULTIPOLYGON
Dimension:     XY
Bounding box:  xmin: 184853.1 ymin: 139843.3 xmax: 728635.8 ymax: 744607.2
Projected CRS: Kertau (RSO) / RSO Malaya (m)
# A tibble: 6,546 × 9
   ADM2_EN    ADM1_EN Shape_Leng Shape_Area                    geometry category
   <chr>      <chr>        <dbl>      <dbl>          <MULTIPOLYGON [m]> <chr>   
 1 BATU PAHAT JOHOR         1.86      0.161 (((556714.6 192051.6, 5566… assault 
 2 BATU PAHAT JOHOR         1.86      0.161 (((556714.6 192051.6, 5566… assault 
 3 BATU PAHAT JOHOR         1.86      0.161 (((556714.6 192051.6, 5566… assault 
 4 BATU PAHAT JOHOR         1.86      0.161 (((556714.6 192051.6, 5566… assault 
 5 BATU PAHAT JOHOR         1.86      0.161 (((556714.6 192051.6, 5566… assault 
 6 BATU PAHAT JOHOR         1.86      0.161 (((556714.6 192051.6, 5566… assault 
 7 BATU PAHAT JOHOR         1.86      0.161 (((556714.6 192051.6, 5566… assault 
 8 BATU PAHAT JOHOR         1.86      0.161 (((556714.6 192051.6, 5566… assault 
 9 BATU PAHAT JOHOR         1.86      0.161 (((556714.6 192051.6, 5566… assault 
10 BATU PAHAT JOHOR         1.86      0.161 (((556714.6 192051.6, 5566… assault 
# ℹ 6,536 more rows
# ℹ 3 more variables: type <chr>, date.y <date>, crimes <dbl>
…
